{
    "hits": [
        {
            "created_at": "2021-09-15T09:23:54.000Z",
            "title": null,
            "url": null,
            "author": "AgentME",
            "points": null,
            "story_text": null,
            "comment_text": "Most blockchains require all nodes to process all transactions, limiting the total transaction limit of the system to the rate of the slowest node that\u0026#x27;s intended to be supported. Ethereum is working on sharding transaction data so that every node only needs to handle all of the transactions of its chosen shard, which will allow the enforced transaction limits to be multiplied by the shard count. There\u0026#x27;s complexity to this because any single transaction can involve data from multiple shards.\u003cp\u003eAllowing the global transaction limit to be raised will decrease the competition for blockchain space and massively decrease transaction fees.\u003cp\u003eThere are also other standards being worked on to allow transactions to be made in a way that they don\u0026#x27;t have to be broadcast to all nodes, which will also allow their transactions to have much cheaper fees. These systems are being developed simultaneously by unaffiliated developers in userspace (\u0026quot;layer 2\u0026quot;) rather than by the core Ethereum developers who are working on proof-of-stake and sharding. These systems generally come with their own sets of trade-offs (including what kinds of smart contracts they support and how smoothly they interoperate with outside systems) so they don\u0026#x27;t completely replace the need for sharding being done by the core developers. ZK rollups and optimistic rollups are some of the main kinds of layer 2 scaling solutions being worked on now.",
            "num_comments": null,
            "story_id": 28494885,
            "story_title": "How We Proved the Eth2 Deposit Contract Is Free of Runtime Errors",
            "story_url": "https://consensys.net/blog/ethereum-2-0/20039/",
            "parent_id": 28517407,
            "created_at_i": 1631697834,
            "_tags": [
                "comment",
                "author_AgentME",
                "story_28494885"
            ],
            "objectID": "28536988",
            "_highlightResult": {
                "author": {
                    "value": "AgentME",
                    "matchLevel": "none",
                    "matchedWords": []
                },
                "comment_text": {
                    "value": "Most blockchains require all \u003cem\u003enodes\u003c/em\u003e to process all transactions, limiting the total transaction limit of the system to the rate of the slowest node that's intended to be supported. Ethereum is working on sharding transaction data so that every node only needs to handle all of the transactions of its chosen shard, which will allow the enforced transaction limits to be multiplied by the shard count. There's complexity to this because any single transaction can involve data from multiple shards.\u003cp\u003eAllowing the global transaction limit to be raised will decrease the competition for blockchain space and massively decrease transaction fees.\u003cp\u003eThere are also other standards being worked on to allow transactions to be made in a way that they don't have to be broadcast to all \u003cem\u003enodes\u003c/em\u003e, which will also allow their transactions to have much cheaper fees. These systems are being developed simultaneously by unaffiliated developers in userspace (\u0026quot;layer 2\u0026quot;) rather than by the core Ethereum developers who are working on proof-of-stake and sharding. These systems generally come with their own sets of trade-offs (including what kinds of smart contracts they support and how smoothly they interoperate with outside systems) so they don't completely replace the need for sharding being done by the core developers. ZK rollups and optimistic rollups are some of the main kinds of layer 2 scaling solutions being worked on now.",
                    "matchLevel": "full",
                    "fullyHighlighted": false,
                    "matchedWords": [
                        "nodejs"
                    ]
                },
                "story_title": {
                    "value": "How We Proved the Eth2 Deposit Contract Is Free of Runtime Errors",
                    "matchLevel": "none",
                    "matchedWords": []
                },
                "story_url": {
                    "value": "https://consensys.net/blog/ethereum-2-0/20039/",
                    "matchLevel": "none",
                    "matchedWords": []
                }
            }
        },
        {
            "created_at": "2021-09-15T07:41:45.000Z",
            "title": null,
            "url": null,
            "author": "speedgoose",
            "points": null,
            "story_text": null,
            "comment_text": "NodeJS has more than one single thread, network IOs notably are on another thread. That\u0026#x27;s the beauty of it.",
            "num_comments": null,
            "story_id": 28509391,
            "story_title": "Unravelling `Async for` Loops",
            "story_url": "https://snarky.ca/unravelling-async-for-loops/",
            "parent_id": 28535584,
            "created_at_i": 1631691705,
            "_tags": [
                "comment",
                "author_speedgoose",
                "story_28509391"
            ],
            "objectID": "28536362",
            "_highlightResult": {
                "author": {
                    "value": "speedgoose",
                    "matchLevel": "none",
                    "matchedWords": []
                },
                "comment_text": {
                    "value": "\u003cem\u003eNodeJS\u003c/em\u003e has more than one single thread, network IOs notably are on another thread. That's the beauty of it.",
                    "matchLevel": "full",
                    "fullyHighlighted": false,
                    "matchedWords": [
                        "nodejs"
                    ]
                },
                "story_title": {
                    "value": "Unravelling `Async for` Loops",
                    "matchLevel": "none",
                    "matchedWords": []
                },
                "story_url": {
                    "value": "https://snarky.ca/unravelling-async-for-loops/",
                    "matchLevel": "none",
                    "matchedWords": []
                }
            }
        },
        {
            "created_at": "2021-09-15T07:10:28.000Z",
            "title": null,
            "url": null,
            "author": "joshxyz",
            "points": null,
            "story_text": null,
            "comment_text": "uwebsockets.js a great webframework for nodejs, comes with websocket support. Replaces fastify, express, koa, api, ws.\u003cp\u003eEsbuild and postcss, replaces webpack.",
            "num_comments": null,
            "story_id": 28527523,
            "story_title": "Ask HN: What 'gem' did you find on GitHub?",
            "story_url": null,
            "parent_id": 28527523,
            "created_at_i": 1631689828,
            "_tags": [
                "comment",
                "author_joshxyz",
                "story_28527523"
            ],
            "objectID": "28536162",
            "_highlightResult": {
                "author": {
                    "value": "joshxyz",
                    "matchLevel": "none",
                    "matchedWords": []
                },
                "comment_text": {
                    "value": "uwebsockets.js a great webframework for \u003cem\u003enodejs\u003c/em\u003e, comes with websocket support. Replaces fastify, express, koa, api, ws.\u003cp\u003eEsbuild and postcss, replaces webpack.",
                    "matchLevel": "full",
                    "fullyHighlighted": false,
                    "matchedWords": [
                        "nodejs"
                    ]
                },
                "story_title": {
                    "value": "Ask HN: What 'gem' did you find on GitHub?",
                    "matchLevel": "none",
                    "matchedWords": []
                }
            }
        },
        {
            "created_at": "2021-09-15T04:14:59.000Z",
            "title": null,
            "url": null,
            "author": "squarefoot",
            "points": null,
            "story_text": null,
            "comment_text": "\u0026gt; This is usually called \u0026quot;MIDI mapping\u0026quot; or similar and is available in basically every DAW these days.\u003cp\u003eI\u0026#x27;m aware of MIDI mapping, my question was about the possibility to make a stand alone sysnthesizer (with keyboard and knobs) in which the necessary controls would be read from analog inputs while still displaying them on the screen as if they were changed with the mouse, which is not easy to do when playing live.\u003cp\u003e\u0026gt; Something like qjackctl (with Jack, obviously) could do this for you, as you can route things however you want in a drag-and-drop UI.\u003cp\u003eSorry, my second sentence wasn\u0026#x27;t clear at all. I\u0026#x27;d love to see a general purpose (not related to sound or any other use) library to allow the graphical representation of structures links (list nodes) together as this software and others do with generators, effects, etc. Ideally, it should operate on the header of a structure which contains the relevant fields for linking to others. When I alter the links on the screen, it does the same on the represented nodes.\nThat would be the way I would build for example a drum machine in which each structure contains also a pattern and I can move them at will back and forth, replicate them, set their own fields (number of repeats, etc). This would be again a sound related application, but what I\u0026#x27;m looking for is something really general purpose.",
            "num_comments": null,
            "story_id": 28529672,
            "story_title": "Bespoke Synth 1.0 – open-source software modular synthesizer",
            "story_url": "http://www.bespokesynth.com/",
            "parent_id": 28531720,
            "created_at_i": 1631679299,
            "_tags": [
                "comment",
                "author_squarefoot",
                "story_28529672"
            ],
            "objectID": "28535213",
            "_highlightResult": {
                "author": {
                    "value": "squarefoot",
                    "matchLevel": "none",
                    "matchedWords": []
                },
                "comment_text": {
                    "value": "\u0026gt; This is usually called \u0026quot;MIDI mapping\u0026quot; or similar and is available in basically every DAW these days.\u003cp\u003eI'm aware of MIDI mapping, my question was about the possibility to make a stand alone sysnthesizer (with keyboard and knobs) in which the necessary controls would be read from analog inputs while still displaying them on the screen as if they were changed with the mouse, which is not easy to do when playing live.\u003cp\u003e\u0026gt; Something like qjackctl (with Jack, obviously) could do this for you, as you can route things however you want in a drag-and-drop UI.\u003cp\u003eSorry, my second sentence wasn't clear at all. I'd love to see a general purpose (not related to sound or any other use) library to allow the graphical representation of structures links (list \u003cem\u003enodes\u003c/em\u003e) together as this software and others do with generators, effects, etc. Ideally, it should operate on the header of a structure which contains the relevant fields for linking to others. When I alter the links on the screen, it does the same on the represented \u003cem\u003enodes\u003c/em\u003e.\nThat would be the way I would build for example a drum machine in which each structure contains also a pattern and I can move them at will back and forth, replicate them, set their own fields (number of repeats, etc). This would be again a sound related application, but what I'm looking for is something really general purpose.",
                    "matchLevel": "full",
                    "fullyHighlighted": false,
                    "matchedWords": [
                        "nodejs"
                    ]
                },
                "story_title": {
                    "value": "Bespoke Synth 1.0 – open-source software modular synthesizer",
                    "matchLevel": "none",
                    "matchedWords": []
                },
                "story_url": {
                    "value": "http://www.bespokesynth.com/",
                    "matchLevel": "none",
                    "matchedWords": []
                }
            }
        },
        {
            "created_at": "2021-09-15T02:57:06.000Z",
            "title": null,
            "url": null,
            "author": "ssss11",
            "points": null,
            "story_text": null,
            "comment_text": "I read that they had some huge throughput that overwhelmed their nodes. I imagine they will bounce back and mitigate this type of failure for the future.",
            "num_comments": null,
            "story_id": 28534259,
            "story_title": "Solana Is Down",
            "story_url": "https://markets.businessinsider.com/news/currencies/solana-crash-network-crypto-blockchain-engineers-validators-restart-sol-2021-9",
            "parent_id": 28534259,
            "created_at_i": 1631674626,
            "_tags": [
                "comment",
                "author_ssss11",
                "story_28534259"
            ],
            "objectID": "28534714",
            "_highlightResult": {
                "author": {
                    "value": "ssss11",
                    "matchLevel": "none",
                    "matchedWords": []
                },
                "comment_text": {
                    "value": "I read that they had some huge throughput that overwhelmed their \u003cem\u003enodes\u003c/em\u003e. I imagine they will bounce back and mitigate this type of failure for the future.",
                    "matchLevel": "full",
                    "fullyHighlighted": false,
                    "matchedWords": [
                        "nodejs"
                    ]
                },
                "story_title": {
                    "value": "Solana Is Down",
                    "matchLevel": "none",
                    "matchedWords": []
                },
                "story_url": {
                    "value": "https://markets.businessinsider.com/news/currencies/solana-crash-network-crypto-blockchain-engineers-validators-restart-sol-2021-9",
                    "matchLevel": "none",
                    "matchedWords": []
                }
            }
        },
        {
            "created_at": "2021-09-15T01:46:18.000Z",
            "title": null,
            "url": null,
            "author": "noajshu",
            "points": null,
            "story_text": null,
            "comment_text": "Thanks! One of the creators here. Our main idea with Lavastone is that you just write “plain” c++ code that doesn’t call any special query interface. It’s transparently making your code run by performing some interactions with the database on your behalf. In this sense the query interface looks just like the standard language features of C++.\u003cp\u003eAs you point out, there are definitely trade offs with choosing Lavastone instead of a SQL database. For instance you can’t easily share concurrent read\u0026#x2F;write access to the same Lavastone data with multiple processes. However, you can copy a fixed Lavastone data store (ie the underlying LevelDB store) and distribute it to multiple server nodes. That’s how we used it anyways!",
            "num_comments": null,
            "story_id": 28532713,
            "story_title": "Show HN: Lavastone – C++ Containers Transparently Backed by Disk",
            "story_url": "https://github.com/campfireai/lavastone",
            "parent_id": 28533899,
            "created_at_i": 1631670378,
            "_tags": [
                "comment",
                "author_noajshu",
                "story_28532713"
            ],
            "objectID": "28534200",
            "_highlightResult": {
                "author": {
                    "value": "noajshu",
                    "matchLevel": "none",
                    "matchedWords": []
                },
                "comment_text": {
                    "value": "Thanks! One of the creators here. Our main idea with Lavastone is that you just write “plain” c++ code that doesn’t call any special query interface. It’s transparently making your code run by performing some interactions with the database on your behalf. In this sense the query interface looks just like the standard language features of C++.\u003cp\u003eAs you point out, there are definitely trade offs with choosing Lavastone instead of a SQL database. For instance you can’t easily share concurrent read/write access to the same Lavastone data with multiple processes. However, you can copy a fixed Lavastone data store (ie the underlying LevelDB store) and distribute it to multiple server \u003cem\u003enodes\u003c/em\u003e. That’s how we used it anyways!",
                    "matchLevel": "full",
                    "fullyHighlighted": false,
                    "matchedWords": [
                        "nodejs"
                    ]
                },
                "story_title": {
                    "value": "Show HN: Lavastone – C++ Containers Transparently Backed by Disk",
                    "matchLevel": "none",
                    "matchedWords": []
                },
                "story_url": {
                    "value": "https://github.com/campfireai/lavastone",
                    "matchLevel": "none",
                    "matchedWords": []
                }
            }
        },
        {
            "created_at": "2021-09-14T23:08:17.000Z",
            "title": null,
            "url": null,
            "author": "PaulDavisThe1st",
            "points": null,
            "story_text": null,
            "comment_text": "Ardour uses XML for its session format, which is not a line-oriented format. Git can handle it, most of the time, but is not ideal. Something that groks the concept of XML nodes would do a better job (i.e. less conflicts duing merge resolution).\u003cp\u003eArdour comes with a small set of basic \u0026quot;curated\u0026quot; plugins written in C or C++, that are \u0026quot;blessed\u0026quot; by us. Writing DSP plugins in Lua is also possible, but generally discouraged and, as you guessed, you can\u0026#x27;t provide a dedicated GUI for them, nor can they be used elsewhere (same limitation as Reaper\u0026#x27;s Jesusonic plugins).\u003cp\u003eHowever, even if those details were improved, the idea that a DAW manufacturer is going to be able to supply the precise EQ that demanding users want, let alone noise reduction, polyphonic pitch correction, and so, so much more, strikes me as unrealistc.",
            "num_comments": null,
            "story_id": 28529672,
            "story_title": "Bespoke Synth 1.0 – open-source software modular synthesizer",
            "story_url": "http://www.bespokesynth.com/",
            "parent_id": 28532587,
            "created_at_i": 1631660897,
            "_tags": [
                "comment",
                "author_PaulDavisThe1st",
                "story_28529672"
            ],
            "objectID": "28532740",
            "_highlightResult": {
                "author": {
                    "value": "PaulDavisThe1st",
                    "matchLevel": "none",
                    "matchedWords": []
                },
                "comment_text": {
                    "value": "Ardour uses XML for its session format, which is not a line-oriented format. Git can handle it, most of the time, but is not ideal. Something that groks the concept of XML \u003cem\u003enodes\u003c/em\u003e would do a better job (i.e. less conflicts duing merge resolution).\u003cp\u003eArdour comes with a small set of basic \u0026quot;curated\u0026quot; plugins written in C or C++, that are \u0026quot;blessed\u0026quot; by us. Writing DSP plugins in Lua is also possible, but generally discouraged and, as you guessed, you can't provide a dedicated GUI for them, nor can they be used elsewhere (same limitation as Reaper's Jesusonic plugins).\u003cp\u003eHowever, even if those details were improved, the idea that a DAW manufacturer is going to be able to supply the precise EQ that demanding users want, let alone noise reduction, polyphonic pitch correction, and so, so much more, strikes me as unrealistc.",
                    "matchLevel": "full",
                    "fullyHighlighted": false,
                    "matchedWords": [
                        "nodejs"
                    ]
                },
                "story_title": {
                    "value": "Bespoke Synth 1.0 – open-source software modular synthesizer",
                    "matchLevel": "none",
                    "matchedWords": []
                },
                "story_url": {
                    "value": "http://www.bespokesynth.com/",
                    "matchLevel": "none",
                    "matchedWords": []
                }
            }
        },
        {
            "created_at": "2021-09-14T21:36:09.000Z",
            "title": null,
            "url": null,
            "author": "diskzero",
            "points": null,
            "story_text": null,
            "comment_text": "I like it, I bought it! Lot\u0026#x27;s of nice features and a tweaky graph UI. Added bonus for implementing the \u0026quot;kissing nodes\u0026quot; connection idiom.\u003cp\u003eI would love see more prefabs, especially ones designed to emulate some classics synths.\u003cp\u003eIt also might be time to add undo. Everyone (especially me) likes to save it for last.\u003cp\u003eKeep up the good work!",
            "num_comments": null,
            "story_id": 28529672,
            "story_title": "Bespoke Synth 1.0 – open-source software modular synthesizer",
            "story_url": "http://www.bespokesynth.com/",
            "parent_id": 28529672,
            "created_at_i": 1631655369,
            "_tags": [
                "comment",
                "author_diskzero",
                "story_28529672"
            ],
            "objectID": "28531687",
            "_highlightResult": {
                "author": {
                    "value": "diskzero",
                    "matchLevel": "none",
                    "matchedWords": []
                },
                "comment_text": {
                    "value": "I like it, I bought it! Lot's of nice features and a tweaky graph UI. Added bonus for implementing the \u0026quot;kissing \u003cem\u003enodes\u003c/em\u003e\u0026quot; connection idiom.\u003cp\u003eI would love see more prefabs, especially ones designed to emulate some classics synths.\u003cp\u003eIt also might be time to add undo. Everyone (especially me) likes to save it for last.\u003cp\u003eKeep up the good work!",
                    "matchLevel": "full",
                    "fullyHighlighted": false,
                    "matchedWords": [
                        "nodejs"
                    ]
                },
                "story_title": {
                    "value": "Bespoke Synth 1.0 – open-source software modular synthesizer",
                    "matchLevel": "none",
                    "matchedWords": []
                },
                "story_url": {
                    "value": "http://www.bespokesynth.com/",
                    "matchLevel": "none",
                    "matchedWords": []
                }
            }
        },
        {
            "created_at": "2021-09-14T17:17:29.000Z",
            "title": "Speer review: Researchers pick apart Node.js communication app",
            "url": "https://portswigger.net/daily-swig/speer-review-researchers-pick-apart-node-js-communication-app",
            "author": "feross",
            "points": 1,
            "story_text": null,
            "comment_text": null,
            "num_comments": 0,
            "story_id": null,
            "story_title": null,
            "story_url": null,
            "parent_id": null,
            "created_at_i": 1631639849,
            "_tags": [
                "story",
                "author_feross",
                "story_28527817"
            ],
            "objectID": "28527817",
            "_highlightResult": {
                "title": {
                    "value": "Speer review: Researchers pick apart Node.js communication app",
                    "matchLevel": "none",
                    "matchedWords": []
                },
                "url": {
                    "value": "https://portswigger.net/daily-swig/speer-review-researchers-pick-apart-\u003cem\u003enode-js\u003c/em\u003e-communication-app",
                    "matchLevel": "full",
                    "fullyHighlighted": false,
                    "matchedWords": [
                        "nodejs"
                    ]
                },
                "author": {
                    "value": "feross",
                    "matchLevel": "none",
                    "matchedWords": []
                }
            }
        },
        {
            "created_at": "2021-09-14T13:37:54.000Z",
            "title": null,
            "url": null,
            "author": "snayan",
            "points": null,
            "story_text": null,
            "comment_text": "Please reflect on the circumstances in your life that lead you to this belief. In my experience this is a very toxic viewpoint and couldn\u0026#x27;t be further from the truth.\u003cp\u003eIf anything I\u0026#x27;d argue that more than ever both women and men are searching for authenticity in a partner. Something increasingly difficult to come by in our social media fueled world.\u003cp\u003eSure, there is a subset on both sides that has been completely sucked in by this culture and measures each others worth by the number of followers on their instagram, but I\u0026#x27;d actually view this as a positive. It\u0026#x27;s really convenient to be able to identify and filter out these vain individuals early on in the dating process.\u003cp\u003eKeep your head up nodejs_rulez_1, there are still plenty of good women and men out there.",
            "num_comments": null,
            "story_id": 28523688,
            "story_title": "Facebook Knows Instagram Is Toxic for Teen Girls, Company Documents Show",
            "story_url": "https://www.wsj.com/articles/facebook-knows-instagram-is-toxic-for-teen-girls-company-documents-show-11631620739",
            "parent_id": 28524445,
            "created_at_i": 1631626674,
            "_tags": [
                "comment",
                "author_snayan",
                "story_28523688"
            ],
            "objectID": "28524597",
            "_highlightResult": {
                "author": {
                    "value": "snayan",
                    "matchLevel": "none",
                    "matchedWords": []
                },
                "comment_text": {
                    "value": "Please reflect on the circumstances in your life that lead you to this belief. In my experience this is a very toxic viewpoint and couldn't be further from the truth.\u003cp\u003eIf anything I'd argue that more than ever both women and men are searching for authenticity in a partner. Something increasingly difficult to come by in our social media fueled world.\u003cp\u003eSure, there is a subset on both sides that has been completely sucked in by this culture and measures each others worth by the number of followers on their instagram, but I'd actually view this as a positive. It's really convenient to be able to identify and filter out these vain individuals early on in the dating process.\u003cp\u003eKeep your head up \u003cem\u003enodejs\u003c/em\u003e_rulez_1, there are still plenty of good women and men out there.",
                    "matchLevel": "full",
                    "fullyHighlighted": false,
                    "matchedWords": [
                        "nodejs"
                    ]
                },
                "story_title": {
                    "value": "Facebook Knows Instagram Is Toxic for Teen Girls, Company Documents Show",
                    "matchLevel": "none",
                    "matchedWords": []
                },
                "story_url": {
                    "value": "https://www.wsj.com/articles/facebook-knows-instagram-is-toxic-for-teen-girls-company-documents-show-11631620739",
                    "matchLevel": "none",
                    "matchedWords": []
                }
            }
        },
        {
            "created_at": "2021-09-14T13:29:36.000Z",
            "title": null,
            "url": null,
            "author": "nodejs_rulez_1",
            "points": null,
            "story_text": null,
            "comment_text": "More to do with sexual liberation than Facebook to be honest.",
            "num_comments": null,
            "story_id": 28523688,
            "story_title": "Facebook Knows Instagram Is Toxic for Teen Girls, Company Documents Show",
            "story_url": "https://www.wsj.com/articles/facebook-knows-instagram-is-toxic-for-teen-girls-company-documents-show-11631620739",
            "parent_id": 28524354,
            "created_at_i": 1631626176,
            "_tags": [
                "comment",
                "author_nodejs_rulez_1",
                "story_28523688"
            ],
            "objectID": "28524476",
            "_highlightResult": {
                "author": {
                    "value": "\u003cem\u003enodejs\u003c/em\u003e_rulez_1",
                    "matchLevel": "full",
                    "fullyHighlighted": false,
                    "matchedWords": [
                        "nodejs"
                    ]
                },
                "comment_text": {
                    "value": "More to do with sexual liberation than Facebook to be honest.",
                    "matchLevel": "none",
                    "matchedWords": []
                },
                "story_title": {
                    "value": "Facebook Knows Instagram Is Toxic for Teen Girls, Company Documents Show",
                    "matchLevel": "none",
                    "matchedWords": []
                },
                "story_url": {
                    "value": "https://www.wsj.com/articles/facebook-knows-instagram-is-toxic-for-teen-girls-company-documents-show-11631620739",
                    "matchLevel": "none",
                    "matchedWords": []
                }
            }
        },
        {
            "created_at": "2021-09-14T13:27:32.000Z",
            "title": null,
            "url": null,
            "author": "nodejs_rulez_1",
            "points": null,
            "story_text": null,
            "comment_text": "Yes, but on flipside said girl now can and fully expects to be courted by best boys well outside of 1995 logistic reach.",
            "num_comments": null,
            "story_id": 28523688,
            "story_title": "Facebook Knows Instagram Is Toxic for Teen Girls, Company Documents Show",
            "story_url": "https://www.wsj.com/articles/facebook-knows-instagram-is-toxic-for-teen-girls-company-documents-show-11631620739",
            "parent_id": 28524353,
            "created_at_i": 1631626052,
            "_tags": [
                "comment",
                "author_nodejs_rulez_1",
                "story_28523688"
            ],
            "objectID": "28524445",
            "_highlightResult": {
                "author": {
                    "value": "\u003cem\u003enodejs\u003c/em\u003e_rulez_1",
                    "matchLevel": "full",
                    "fullyHighlighted": false,
                    "matchedWords": [
                        "nodejs"
                    ]
                },
                "comment_text": {
                    "value": "Yes, but on flipside said girl now can and fully expects to be courted by best boys well outside of 1995 logistic reach.",
                    "matchLevel": "none",
                    "matchedWords": []
                },
                "story_title": {
                    "value": "Facebook Knows Instagram Is Toxic for Teen Girls, Company Documents Show",
                    "matchLevel": "none",
                    "matchedWords": []
                },
                "story_url": {
                    "value": "https://www.wsj.com/articles/facebook-knows-instagram-is-toxic-for-teen-girls-company-documents-show-11631620739",
                    "matchLevel": "none",
                    "matchedWords": []
                }
            }
        },
        {
            "created_at": "2021-09-14T08:08:51.000Z",
            "title": null,
            "url": null,
            "author": "todotask",
            "points": null,
            "story_text": null,
            "comment_text": "Yes, majority of websites (legacy on PHP 5.6 and modern site in PHP 7+) use CPanel. Even thought that cPanel is written in Perl.\u003cp\u003eMost newbie coders would start out coding their own blogs in PHP\u0026#x2F;Nodejs or Python on shared hosting, some web host use web framework as well.",
            "num_comments": null,
            "story_id": 28510520,
            "story_title": "Usage statistics of server-side programming languages for websites",
            "story_url": "https://w3techs.com/technologies/history_overview/programming_language/ms/y",
            "parent_id": 28512284,
            "created_at_i": 1631606931,
            "_tags": [
                "comment",
                "author_todotask",
                "story_28510520"
            ],
            "objectID": "28521714",
            "_highlightResult": {
                "author": {
                    "value": "todotask",
                    "matchLevel": "none",
                    "matchedWords": []
                },
                "comment_text": {
                    "value": "Yes, majority of websites (legacy on PHP 5.6 and modern site in PHP 7+) use CPanel. Even thought that cPanel is written in Perl.\u003cp\u003eMost newbie coders would start out coding their own blogs in PHP/\u003cem\u003eNodejs\u003c/em\u003e or Python on shared hosting, some web host use web framework as well.",
                    "matchLevel": "full",
                    "fullyHighlighted": false,
                    "matchedWords": [
                        "nodejs"
                    ]
                },
                "story_title": {
                    "value": "Usage statistics of server-side programming languages for websites",
                    "matchLevel": "none",
                    "matchedWords": []
                },
                "story_url": {
                    "value": "https://w3techs.com/technologies/history_overview/programming_language/ms/y",
                    "matchLevel": "none",
                    "matchedWords": []
                }
            }
        },
        {
            "created_at": "2021-09-14T02:50:24.000Z",
            "title": null,
            "url": null,
            "author": "francissyncari",
            "points": null,
            "story_text": null,
            "comment_text": "Syncari | Sr UI Engineer | Remote (US Only) | Full-time\u003cp\u003eWe are seeking a Senior User Interface Engineer to help us build and expand Syncari’s web application interface. You will be responsible for designing and implementing the UI and work very closely with the UX designer to align the implementation to the designs. You will be part of a remote team with heavy collaboration over Slack and Google Hangouts. You will be responsible for understanding requirements, as well as building and testing features.\u003cp\u003e- BS\u0026#x2F;MS degree or equivalent with 4+ Years of overall experience in web application design and development\n- 3+ years of Front-end (UI) development experience with strong skills in HTML5, CSS3, JavaScript, ReactJS, Typescript, Redux, React Testing Library, NodeJS, and Express\n- Experience with the latest UI libraries and frameworks\n- Knowledge of REST APIs and experience with Git\n- Excellent written and verbal communication skills\u003cp\u003eFull details: \u003ca href=\"https:\u0026#x2F;\u0026#x2F;boards.greenhouse.io\u0026#x2F;syncari\u0026#x2F;jobs\u0026#x2F;4633813003\" rel=\"nofollow\"\u003ehttps:\u0026#x2F;\u0026#x2F;boards.greenhouse.io\u0026#x2F;syncari\u0026#x2F;jobs\u0026#x2F;4633813003\u003c/a\u003e\u003cp\u003eNo recruiters or contractors.\u003cp\u003ePlease send your resume to jobs@syncari.com and mention hackers news if you\u0026#x27;re interested!",
            "num_comments": null,
            "story_id": 28380661,
            "story_title": "Ask HN: Who is hiring? (September 2021)",
            "story_url": null,
            "parent_id": 28380661,
            "created_at_i": 1631587824,
            "_tags": [
                "comment",
                "author_francissyncari",
                "story_28380661"
            ],
            "objectID": "28519635",
            "_highlightResult": {
                "author": {
                    "value": "francissyncari",
                    "matchLevel": "none",
                    "matchedWords": []
                },
                "comment_text": {
                    "value": "Syncari | Sr UI Engineer | Remote (US Only) | Full-time\u003cp\u003eWe are seeking a Senior User Interface Engineer to help us build and expand Syncari’s web application interface. You will be responsible for designing and implementing the UI and work very closely with the UX designer to align the implementation to the designs. You will be part of a remote team with heavy collaboration over Slack and Google Hangouts. You will be responsible for understanding requirements, as well as building and testing features.\u003cp\u003e- BS/MS degree or equivalent with 4+ Years of overall experience in web application design and development\n- 3+ years of Front-end (UI) development experience with strong skills in HTML5, CSS3, JavaScript, ReactJS, Typescript, Redux, React Testing Library, \u003cem\u003eNodeJS\u003c/em\u003e, and Express\n- Experience with the latest UI libraries and frameworks\n- Knowledge of REST APIs and experience with Git\n- Excellent written and verbal communication skills\u003cp\u003eFull details: \u003ca href=\"https://boards.greenhouse.io/syncari/jobs/4633813003\" rel=\"nofollow\"\u003ehttps://boards.greenhouse.io/syncari/jobs/4633813003\u003c/a\u003e\u003cp\u003eNo recruiters or contractors.\u003cp\u003ePlease send your resume to jobs@syncari.com and mention hackers news if you're interested!",
                    "matchLevel": "full",
                    "fullyHighlighted": false,
                    "matchedWords": [
                        "nodejs"
                    ]
                },
                "story_title": {
                    "value": "Ask HN: Who is hiring? (September 2021)",
                    "matchLevel": "none",
                    "matchedWords": []
                }
            }
        },
        {
            "created_at": "2021-09-13T22:24:19.000Z",
            "title": null,
            "url": null,
            "author": "dejwakh",
            "points": null,
            "story_text": null,
            "comment_text": "Location: Hampton, Virginia\u003cp\u003eRemote: Yes\u003cp\u003eWilling to relocate: No\u003cp\u003eSite: \u003ca href=\"https:\u0026#x2F;\u0026#x2F;vahid.blog\" rel=\"nofollow\"\u003ehttps:\u0026#x2F;\u0026#x2F;vahid.blog\u003c/a\u003e\u003cp\u003eEmail: hi [at] vahid.blog\u003cp\u003eTechnologies: NodeJS, Golang, Ruby, Express, PostgreSQL, MongoDB, Redis, Kafka, Sinatra, Ruby on Rails, SQL, Webhooks, RESTful APIs, EventSource, SSE, Websockets, Socket.io, JavaScript, Ajax, jQuery, HTML, CSS, React, Redux, Bootstrap, Handlebars.js, Digital Ocean, Heroku, GitHub, Docker, AWS (CDK, Cloudformation, ECS, ALB, Fargate, Elasticache for Redis)\u003cp\u003e=====\u003cp\u003eI\u0026#x27;m Vahid, a software engineer based in Hampton, Virginia. I\u0026#x27;m looking for a backend or fullstack role at a growing company. Quick learner and methodical problem solver, with a law degree and demonstrated experience of leading projects from ideas to completion.\u003cp\u003eI recently built the Fjord framework with a remote team of three other engineers. Fjord enables client-side streaming from any Kafka topic in real-time, and provides an easy-to-use CLI to deploy all the infrastructure you need to AWS.\u003cp\u003eMore info here: \u003ca href=\"https:\u0026#x2F;\u0026#x2F;fjord-framework.github.io\u0026#x2F;\" rel=\"nofollow\"\u003ehttps:\u0026#x2F;\u0026#x2F;fjord-framework.github.io\u0026#x2F;\u003c/a\u003e",
            "num_comments": null,
            "story_id": 28380659,
            "story_title": "Ask HN: Who wants to be hired? (September 2021)",
            "story_url": null,
            "parent_id": 28380659,
            "created_at_i": 1631571859,
            "_tags": [
                "comment",
                "author_dejwakh",
                "story_28380659"
            ],
            "objectID": "28517711",
            "_highlightResult": {
                "author": {
                    "value": "dejwakh",
                    "matchLevel": "none",
                    "matchedWords": []
                },
                "comment_text": {
                    "value": "Location: Hampton, Virginia\u003cp\u003eRemote: Yes\u003cp\u003eWilling to relocate: No\u003cp\u003eSite: \u003ca href=\"https://vahid.blog\" rel=\"nofollow\"\u003ehttps://vahid.blog\u003c/a\u003e\u003cp\u003eEmail: hi [at] vahid.blog\u003cp\u003eTechnologies: \u003cem\u003eNodeJS\u003c/em\u003e, Golang, Ruby, Express, PostgreSQL, MongoDB, Redis, Kafka, Sinatra, Ruby on Rails, SQL, Webhooks, RESTful APIs, EventSource, SSE, Websockets, Socket.io, JavaScript, Ajax, jQuery, HTML, CSS, React, Redux, Bootstrap, Handlebars.js, Digital Ocean, Heroku, GitHub, Docker, AWS (CDK, Cloudformation, ECS, ALB, Fargate, Elasticache for Redis)\u003cp\u003e=====\u003cp\u003eI'm Vahid, a software engineer based in Hampton, Virginia. I'm looking for a backend or fullstack role at a growing company. Quick learner and methodical problem solver, with a law degree and demonstrated experience of leading projects from ideas to completion.\u003cp\u003eI recently built the Fjord framework with a remote team of three other engineers. Fjord enables client-side streaming from any Kafka topic in real-time, and provides an easy-to-use CLI to deploy all the infrastructure you need to AWS.\u003cp\u003eMore info here: \u003ca href=\"https://fjord-framework.github.io/\" rel=\"nofollow\"\u003ehttps://fjord-framework.github.io/\u003c/a\u003e",
                    "matchLevel": "full",
                    "fullyHighlighted": false,
                    "matchedWords": [
                        "nodejs"
                    ]
                },
                "story_title": {
                    "value": "Ask HN: Who wants to be hired? (September 2021)",
                    "matchLevel": "none",
                    "matchedWords": []
                }
            }
        },
        {
            "created_at": "2021-09-13T20:30:02.000Z",
            "title": null,
            "url": null,
            "author": "zamadatix",
            "points": null,
            "story_text": null,
            "comment_text": "Google search isn\u0026#x27;t a static site, the results are dynamically generated based on what it knows about you (location, browser language, recent searches from IP, recent searches from account, and so on with all of the things they know from trying to sell ad slots to that device).\u003cp\u003eThat being said there isn\u0026#x27;t anything wrong with using Scrapy for this. If you\u0026#x27;re more familiar with web browsers than Python something like \u003ca href=\"https:\u0026#x2F;\u0026#x2F;github.com\u0026#x2F;puppeteer\u0026#x2F;puppeteer\" rel=\"nofollow\"\u003ehttps:\u0026#x2F;\u0026#x2F;github.com\u0026#x2F;puppeteer\u0026#x2F;puppeteer\u003c/a\u003e can also be turned into a quick way to scrape a site by giving you a headless browser controlled by whatever you script in nodejs.",
            "num_comments": null,
            "story_id": 28514998,
            "story_title": "How to Crawl the Web with Scrapy",
            "story_url": "https://www.babbling.fish/scraping-for-a-job/",
            "parent_id": 28516237,
            "created_at_i": 1631565002,
            "_tags": [
                "comment",
                "author_zamadatix",
                "story_28514998"
            ],
            "objectID": "28516467",
            "_highlightResult": {
                "author": {
                    "value": "zamadatix",
                    "matchLevel": "none",
                    "matchedWords": []
                },
                "comment_text": {
                    "value": "Google search isn't a static site, the results are dynamically generated based on what it knows about you (location, browser language, recent searches from IP, recent searches from account, and so on with all of the things they know from trying to sell ad slots to that device).\u003cp\u003eThat being said there isn't anything wrong with using Scrapy for this. If you're more familiar with web browsers than Python something like \u003ca href=\"https://github.com/puppeteer/puppeteer\" rel=\"nofollow\"\u003ehttps://github.com/puppeteer/puppeteer\u003c/a\u003e can also be turned into a quick way to scrape a site by giving you a headless browser controlled by whatever you script in \u003cem\u003enodejs\u003c/em\u003e.",
                    "matchLevel": "full",
                    "fullyHighlighted": false,
                    "matchedWords": [
                        "nodejs"
                    ]
                },
                "story_title": {
                    "value": "How to Crawl the Web with Scrapy",
                    "matchLevel": "none",
                    "matchedWords": []
                },
                "story_url": {
                    "value": "https://www.babbling.fish/scraping-for-a-job/",
                    "matchLevel": "none",
                    "matchedWords": []
                }
            }
        },
        {
            "created_at": "2021-09-13T18:41:19.000Z",
            "title": null,
            "url": null,
            "author": "schwartzworld",
            "points": null,
            "story_text": null,
            "comment_text": "I use Pandoc and a few lines of nodeJS code.",
            "num_comments": null,
            "story_id": 28514029,
            "story_title": "RIP Jekyll (The Genesis of the Jamstack)",
            "story_url": "https://www.bridgetownrb.com/future/rip-jekyll/",
            "parent_id": 28514740,
            "created_at_i": 1631558479,
            "_tags": [
                "comment",
                "author_schwartzworld",
                "story_28514029"
            ],
            "objectID": "28515077",
            "_highlightResult": {
                "author": {
                    "value": "schwartzworld",
                    "matchLevel": "none",
                    "matchedWords": []
                },
                "comment_text": {
                    "value": "I use Pandoc and a few lines of \u003cem\u003enodeJS\u003c/em\u003e code.",
                    "matchLevel": "full",
                    "fullyHighlighted": false,
                    "matchedWords": [
                        "nodejs"
                    ]
                },
                "story_title": {
                    "value": "RIP Jekyll (The Genesis of the Jamstack)",
                    "matchLevel": "none",
                    "matchedWords": []
                },
                "story_url": {
                    "value": "https://www.bridgetownrb.com/future/rip-jekyll/",
                    "matchLevel": "none",
                    "matchedWords": []
                }
            }
        },
        {
            "created_at": "2021-09-13T18:30:23.000Z",
            "title": null,
            "url": null,
            "author": "azmorf",
            "points": null,
            "story_text": null,
            "comment_text": "Aldo | Web | FULLY REMOTE \u0026#x2F; Eastern Europe \u0026amp; LATAM | Full-Time | \u003ca href=\"https:\u0026#x2F;\u0026#x2F;www.aldohire.com\u0026#x2F;\" rel=\"nofollow\"\u003ehttps:\u0026#x2F;\u0026#x2F;www.aldohire.com\u0026#x2F;\u003c/a\u003e\u003cp\u003eWe are Aldo, a boutique global headhunting company that helps US companies find brilliant talent in Eastern Europe and LATAM.\u003cp\u003eWe help companies hire nearshore\u0026#x2F;offshore talent directly and unlike Toptal\u0026#x2F;Upwork we don\u0026#x27;t take any cut off the developers\u0026#x27; pay.\u003cp\u003eWe\u0026#x27;re currently looking for the talent for following positions with active clients:\u003cp\u003e- Mid\u0026#x2F;Senior Full-Stack JS Engineer (LATAM or Eastern Europe): \u003ca href=\"https:\u0026#x2F;\u0026#x2F;effectiveband.notion.site\u0026#x2F;Mid-Senior-Full-Stack-JS-Engineer-b78a0cb5f9984ef4b8e1e29172879588\" rel=\"nofollow\"\u003ehttps:\u0026#x2F;\u0026#x2F;effectiveband.notion.site\u0026#x2F;Mid-Senior-Full-Stack-JS-E...\u003c/a\u003e\u003cp\u003e- Frontend Developer in Monterrey, Mexico with a US-based startup (job description coming soon)\u003cp\u003e- Senior Backend Engineer (LATAM, remote): \u003ca href=\"https:\u0026#x2F;\u0026#x2F;effectiveband.notion.site\u0026#x2F;Senior-Backend-Engineer-LATAM-ee2d47670caa4ba0a798b68aac61203f\" rel=\"nofollow\"\u003ehttps:\u0026#x2F;\u0026#x2F;effectiveband.notion.site\u0026#x2F;Senior-Backend-Engineer-LA...\u003c/a\u003e\u003cp\u003e- Senior DevOps Engineer (LATAM, remote): \u003ca href=\"https:\u0026#x2F;\u0026#x2F;effectiveband.notion.site\u0026#x2F;Senior-DevOps-Engineer-LATAM-becddbc39536480f87ad11365f2eb0a6\" rel=\"nofollow\"\u003ehttps:\u0026#x2F;\u0026#x2F;effectiveband.notion.site\u0026#x2F;Senior-DevOps-Engineer-LAT...\u003c/a\u003e\u003cp\u003e- Senior Node.js developer with AWS Serverless Expertize (Anywhere – remote): \u003ca href=\"https:\u0026#x2F;\u0026#x2F;effectiveband.notion.site\u0026#x2F;Senior-Node-js-developer-with-AWS-Serverless-Expertize-ff15b6d4519e4008a0c17c7e9e56cbfb\" rel=\"nofollow\"\u003ehttps:\u0026#x2F;\u0026#x2F;effectiveband.notion.site\u0026#x2F;Senior-Node-js-developer-w...\u003c/a\u003e\u003cp\u003e- Senior .NET Developer with Experience in React (Poland only): \u003ca href=\"https:\u0026#x2F;\u0026#x2F;effectiveband.notion.site\u0026#x2F;Senior-NET-Developer-with-Experience-in-React-Poland-only-7d164572758544e7bcea87eb6f003e9f\" rel=\"nofollow\"\u003ehttps:\u0026#x2F;\u0026#x2F;effectiveband.notion.site\u0026#x2F;Senior-NET-Developer-with-...\u003c/a\u003e\u003cp\u003eIf you find any of the positions of interest to you, shoot us an email at hireme [ат] aldohire.com!",
            "num_comments": null,
            "story_id": 28380661,
            "story_title": "Ask HN: Who is hiring? (September 2021)",
            "story_url": null,
            "parent_id": 28380661,
            "created_at_i": 1631557823,
            "_tags": [
                "comment",
                "author_azmorf",
                "story_28380661"
            ],
            "objectID": "28514957",
            "_highlightResult": {
                "author": {
                    "value": "azmorf",
                    "matchLevel": "none",
                    "matchedWords": []
                },
                "comment_text": {
                    "value": "Aldo | Web | FULLY REMOTE / Eastern Europe \u0026amp; LATAM | Full-Time | \u003ca href=\"https://www.aldohire.com/\" rel=\"nofollow\"\u003ehttps://www.aldohire.com/\u003c/a\u003e\u003cp\u003eWe are Aldo, a boutique global headhunting company that helps US companies find brilliant talent in Eastern Europe and LATAM.\u003cp\u003eWe help companies hire nearshore/offshore talent directly and unlike Toptal/Upwork we don't take any cut off the developers' pay.\u003cp\u003eWe're currently looking for the talent for following positions with active clients:\u003cp\u003e- Mid/Senior Full-Stack JS Engineer (LATAM or Eastern Europe): \u003ca href=\"https://effectiveband.notion.site/Mid-Senior-Full-Stack-JS-Engineer-b78a0cb5f9984ef4b8e1e29172879588\" rel=\"nofollow\"\u003ehttps://effectiveband.notion.site/Mid-Senior-Full-Stack-JS-E...\u003c/a\u003e\u003cp\u003e- Frontend Developer in Monterrey, Mexico with a US-based startup (job description coming soon)\u003cp\u003e- Senior Backend Engineer (LATAM, remote): \u003ca href=\"https://effectiveband.notion.site/Senior-Backend-Engineer-LATAM-ee2d47670caa4ba0a798b68aac61203f\" rel=\"nofollow\"\u003ehttps://effectiveband.notion.site/Senior-Backend-Engineer-LA...\u003c/a\u003e\u003cp\u003e- Senior DevOps Engineer (LATAM, remote): \u003ca href=\"https://effectiveband.notion.site/Senior-DevOps-Engineer-LATAM-becddbc39536480f87ad11365f2eb0a6\" rel=\"nofollow\"\u003ehttps://effectiveband.notion.site/Senior-DevOps-Engineer-LAT...\u003c/a\u003e\u003cp\u003e- Senior Node.js developer with AWS Serverless Expertize (Anywhere – remote): \u003ca href=\"https://effectiveband.notion.site/Senior-Node-js-developer-with-AWS-Serverless-Expertize-ff15b6d4519e4008a0c17c7e9e56cbfb\" rel=\"nofollow\"\u003ehttps://effectiveband.notion.site/Senior-\u003cem\u003eNode-js\u003c/em\u003e-developer-w...\u003c/a\u003e\u003cp\u003e- Senior .NET Developer with Experience in React (Poland only): \u003ca href=\"https://effectiveband.notion.site/Senior-NET-Developer-with-Experience-in-React-Poland-only-7d164572758544e7bcea87eb6f003e9f\" rel=\"nofollow\"\u003ehttps://effectiveband.notion.site/Senior-NET-Developer-with-...\u003c/a\u003e\u003cp\u003eIf you find any of the positions of interest to you, shoot us an email at hireme [ат] aldohire.com!",
                    "matchLevel": "full",
                    "fullyHighlighted": false,
                    "matchedWords": [
                        "nodejs"
                    ]
                },
                "story_title": {
                    "value": "Ask HN: Who is hiring? (September 2021)",
                    "matchLevel": "none",
                    "matchedWords": []
                }
            }
        },
        {
            "created_at": "2021-09-13T17:22:45.000Z",
            "title": null,
            "url": null,
            "author": "wibagusto",
            "points": null,
            "story_text": null,
            "comment_text": "Not sure why folks think a “nodejs” type package manager is required…\u003cp\u003eFor instance, what is this if not package management?\u003cp\u003eapt install libpng-dev",
            "num_comments": null,
            "story_id": 28509333,
            "story_title": "Fortran Web Framework",
            "story_url": "https://fortran.io/",
            "parent_id": 28509783,
            "created_at_i": 1631553765,
            "_tags": [
                "comment",
                "author_wibagusto",
                "story_28509333"
            ],
            "objectID": "28514128",
            "_highlightResult": {
                "author": {
                    "value": "wibagusto",
                    "matchLevel": "none",
                    "matchedWords": []
                },
                "comment_text": {
                    "value": "Not sure why folks think a “\u003cem\u003enodejs\u003c/em\u003e” type package manager is required…\u003cp\u003eFor instance, what is this if not package management?\u003cp\u003eapt install libpng-dev",
                    "matchLevel": "full",
                    "fullyHighlighted": false,
                    "matchedWords": [
                        "nodejs"
                    ]
                },
                "story_title": {
                    "value": "Fortran Web Framework",
                    "matchLevel": "none",
                    "matchedWords": []
                },
                "story_url": {
                    "value": "https://fortran.io/",
                    "matchLevel": "none",
                    "matchedWords": []
                }
            }
        },
        {
            "created_at": "2021-09-13T13:47:47.000Z",
            "title": null,
            "url": null,
            "author": "gbourne",
            "points": null,
            "story_text": null,
            "comment_text": "This is interesting from a 30,000 foot view, but without knowing the details on the companies and how they are using the language it is hard to draw conclusions.\u003cp\u003eFor example:\u003cp\u003e- As many pointed out, are the majority of PHP just default Wordpress sites? I would rather know who built in a given language rather than installed a site that happens to use a language.\n- I use to be in the banking world and it as all Java (or C++ for algo trading, Scala for data processing, but never NodeJS), but I haven\u0026#x27;t seen many new startups using Java unless the founders came from banking. The industry made a difference.\n- How old is the company - a 30+ old company might have Perl.\u003cp\u003eAlso, a bit surprised at Javascript, AKA NodeJs. I thought it would be higher.",
            "num_comments": null,
            "story_id": 28510520,
            "story_title": "PHP is still by far the most used server-side language with 78.9% market share",
            "story_url": "https://w3techs.com/technologies/history_overview/programming_language/ms/y",
            "parent_id": 28510520,
            "created_at_i": 1631540867,
            "_tags": [
                "comment",
                "author_gbourne",
                "story_28510520"
            ],
            "objectID": "28511440",
            "_highlightResult": {
                "author": {
                    "value": "gbourne",
                    "matchLevel": "none",
                    "matchedWords": []
                },
                "comment_text": {
                    "value": "This is interesting from a 30,000 foot view, but without knowing the details on the companies and how they are using the language it is hard to draw conclusions.\u003cp\u003eFor example:\u003cp\u003e- As many pointed out, are the majority of PHP just default Wordpress sites? I would rather know who built in a given language rather than installed a site that happens to use a language.\n- I use to be in the banking world and it as all Java (or C++ for algo trading, Scala for data processing, but never \u003cem\u003eNodeJS\u003c/em\u003e), but I haven't seen many new startups using Java unless the founders came from banking. The industry made a difference.\n- How old is the company - a 30+ old company might have Perl.\u003cp\u003eAlso, a bit surprised at Javascript, AKA \u003cem\u003eNodeJs\u003c/em\u003e. I thought it would be higher.",
                    "matchLevel": "full",
                    "fullyHighlighted": false,
                    "matchedWords": [
                        "nodejs"
                    ]
                },
                "story_title": {
                    "value": "PHP is still by far the most used server-side language with 78.9% market share",
                    "matchLevel": "none",
                    "matchedWords": []
                },
                "story_url": {
                    "value": "https://w3techs.com/technologies/history_overview/programming_language/ms/y",
                    "matchLevel": "none",
                    "matchedWords": []
                }
            }
        }
    ],
    "nbHits": 21130,
    "page": 0,
    "nbPages": 50,
    "hitsPerPage": 20,
    "exhaustiveNbHits": true,
    "query": "nodejs",
    "params": "advancedSyntax=true\u0026analytics=true\u0026analyticsTags=backend\u0026query=nodejs",
    "processingTimeMS": 6
}